/* XPM */
static char * tenor_xpm[] = {
"30 49 6 1",
" 	c None",
".	c #000000",
"+	c #000100",
"@	c #010101",
"#	c #000200",
"$	c #010001",
"                              ",
"                              ",
"                              ",
"                              ",
"                              ",
"                              ",
"  ..... .       .+..+.++      ",
"  ..... .      +@     ...     ",
"  ..... .     ...     +...    ",
"  ..... .    #....#    +...   ",
"  ..... .    #....+    +...+  ",
"  ..... .     ....+    $....  ",
"  ..... .      ++.      ...+  ",
"  ..... .               ....  ",
"  ..... .               ....  ",
"  ..... .               ...$  ",
"  ..... .               ...+  ",
"  ..... .              #...   ",
"  ..... .              +..#   ",
"  ..... .      +       ..+    ",
"  ..... .     +.      $..     ",
"  ..... .     ..++   +.+      ",
"  ..... .    +...+..++        ",
"  ..... .   +..               ",
"  ..... .  $..                ",
"  ..... .  $..+               ",
"  ..... .   +..               ",
"  ..... .    ... +++.         ",
"  ..... .     +..+   .+       ",
"  ..... .      .+     ..+     ",
"  ..... .      +       ...    ",
"  ..... .              +..#   ",
"  ..... .              +...   ",
"  ..... .               ...+  ",
"  ..... .               ....  ",
"  ..... .               ....  ",
"  ..... .               ...+  ",
"  ..... .     +...$     ...+  ",
"  ..... .     .....     ...+  ",
"  ..... .    #.....    ....   ",
"  ..... .     ....+    +..+   ",
"  ..... .     +.       +.+    ",
"  ..... .      +      +..     ",
"  ..... .        ...+..+      ",
"                              ",
"                              ",
"                              ",
"                              ",
"                              "};
